<?xml version="1.0" encoding="UTF-8" standalone="no"?>
<!-- Created with Inkscape (http://www.inkscape.org/) -->

<svg
   xmlns:dc="http://purl.org/dc/elements/1.1/"
   xmlns:cc="http://creativecommons.org/ns#"
   xmlns:rdf="http://www.w3.org/1999/02/22-rdf-syntax-ns#"
   xmlns:svg="http://www.w3.org/2000/svg"
   xmlns="http://www.w3.org/2000/svg"
   xmlns:sodipodi="http://sodipodi.sourceforge.net/DTD/sodipodi-0.dtd"
   xmlns:inkscape="http://www.inkscape.org/namespaces/inkscape"
   width="744.09448819"
   height="1052.3622047"
   id="svg5013"
   version="1.1"
   inkscape:version="0.48.4 r9939"
   sodipodi:docname="avatar-male1.svg">
  <defs
     id="defs5015" />
  <sodipodi:namedview
     id="base"
     pagecolor="#ffffff"
     bordercolor="#666666"
     borderopacity="1.0"
     inkscape:pageopacity="0.0"
     inkscape:pageshadow="2"
     inkscape:zoom="0.35"
     inkscape:cx="375"
     inkscape:cy="520"
     inkscape:document-units="px"
     inkscape:current-layer="layer1"
     showgrid="false"
     inkscape:window-width="513"
     inkscape:window-height="406"
     inkscape:window-x="851"
     inkscape:window-y="24"
     inkscape:window-maximized="0" />
  <metadata
     id="metadata5018">
    <rdf:RDF>
      <cc:Work
         rdf:about="">
        <dc:format>image/svg+xml</dc:format>
        <dc:type
           rdf:resource="http://purl.org/dc/dcmitype/StillImage" />
        <dc:title />
      </cc:Work>
    </rdf:RDF>
  </metadata>
  <g
     inkscape:label="Layer 1"
     inkscape:groupmode="layer"
     id="layer1">
    <g
       transform="matrix(4.0787358,0,0,-4.0787358,-645.87944,2650.1727)"
       id="g4538">
      <g
         id="g4328-9">
        <g
           id="g4358-2">
          <g
             transform="translate(222.6123,582.4404)"
             id="g100-3">
            <path
               inkscape:connector-curvature="0"
               id="path102-2"
               style="fill:#84562c;fill-opacity:1;fill-rule:nonzero;stroke:none"
               d="M 0,0 C 0,0 -0.459,5.381 -2.864,6.297 -5.267,7.212 -3.665,-6.753 -1.833,-10.647 0,-14.539 1.746,-15.991 1.746,-15.991 1.746,-15.991 1.031,-5.266 0,0" />
          </g>
          <g
             transform="translate(269.9834,528.2793)"
             id="g104-8" />
          <g
             transform="translate(227.6836,538.1934)"
             id="g108-5" />
          <g
             transform="matrix(1,0,0,1.407482,249.2759,516.31797)"
             id="g124-7">
            <path
               sodipodi:nodetypes="ccccccccccccccc"
               inkscape:connector-curvature="0"
               id="path126-0"
               style="fill:#84562c;fill-opacity:1;fill-rule:nonzero;stroke:none"
               d="M 0,0 30.816996,-3.3275753 35.698521,9.7470084 21.721346,13.979439 19.731,29.395 -0.062,22.578 -19.857,29.395 -21.37148,14.253731 -34.557746,10.362286 -32.141482,-5.8821076 -0.124,0 l 0,-0.017 0.062,0.009 L 0,-0.017 z" />
          </g>
          <g
             transform="translate(273.9434,604.9922)"
             id="g128-6">
            <path
               inkscape:connector-curvature="0"
               id="path130-6"
               style="fill:#a67c52;fill-opacity:1;fill-rule:nonzero;stroke:none"
               d="m 0,0 -10.172,6.063 -0.21,0.015 -36.023,-4.312 -5.993,-5.577 2.857,-41.608 14.383,-19.19 10.081,-0.046 0.416,0 11.501,0 3.764,4.6 9.199,14.636 L 2.104,-13.22 0,0 z" />
          </g>
          <g
             transform="translate(221.3721,586.5449)"
             id="g132-0">
            <path
               inkscape:connector-curvature="0"
               id="path134-5"
               style="fill:#42210b;fill-opacity:1;fill-rule:nonzero;stroke:none"
               d="M 0,0 1.567,-12.023 2.822,-13.904 2.646,-1.29 c 0,0 1.292,6.726 1.708,10.212 0.248,2.077 2.933,8.659 8.982,9.525 4.097,0.588 14.953,-4.286 14.953,-4.286 0,0 9.824,5.471 16.305,3.345 3.028,-0.993 4.744,-5.292 4.744,-5.292 0,0 1.793,-6.185 2.157,-8.297 0.463,-2.693 0.95,-10.885 0.95,-10.885 l -0.558,-7.529 1.114,1.673 c 0,0 0.283,8.085 1.953,11.431 1.115,0.487 1.603,-1.953 1.603,-1.953 0,0 6.078,33.29 -7.078,41.161 -12.244,7.327 -30.977,4.854 -39.593,1.711 -5.483,-2 -10.35,-7.213 -10.977,-20.66 C -1.779,4.15 0,0 0,0" />
          </g>
          <g
             transform="translate(274.9746,582.4404)"
             id="g136-0">
            <path
               inkscape:connector-curvature="0"
               id="path138-3"
               style="fill:#84562c;fill-opacity:1;fill-rule:nonzero;stroke:none"
               d="M 0,0 C 0,0 0.458,5.381 2.861,6.297 5.266,7.212 3.662,-6.753 1.829,-10.647 0,-14.539 -0.673,-15.125 -0.673,-15.125 c 0,0 -0.358,9.859 0.673,15.125" />
          </g>
        </g>
        <g
           id="g148-3"
           transform="translate(249.1494,562.2007)" />
      </g>
      <g
         id="g360-7"
         transform="translate(305.6681,517.79711)">
        <path
           d="m 0,0 c -4.338,3.481 -8.87,6.583 -12.682,9.016 l -9.488,4.451 c -36.459,-30.766 -68.735,0.176 -68.735,0.176 0,0 -15.88,-8.835 -21.862,-13.643 -9.829,-7.899 -11.332,-19.284 -12.108,-48.237 l 58.859,0 9.08,0 1.107,0 4.08,0 63.858,0 C 11.334,-19.284 9.835,-7.893 0,0"
           style="fill:#5fd35f;fill-opacity:1;fill-rule:nonzero;stroke:none"
           id="path362-7"
           inkscape:connector-curvature="0" />
      </g>
    </g>
  </g>
</svg>
