<?xml version="1.0" encoding="UTF-8" standalone="no"?>
<!-- Created with Inkscape (http://www.inkscape.org/) -->

<svg
   xmlns:dc="http://purl.org/dc/elements/1.1/"
   xmlns:cc="http://creativecommons.org/ns#"
   xmlns:rdf="http://www.w3.org/1999/02/22-rdf-syntax-ns#"
   xmlns:svg="http://www.w3.org/2000/svg"
   xmlns="http://www.w3.org/2000/svg"
   xmlns:sodipodi="http://sodipodi.sourceforge.net/DTD/sodipodi-0.dtd"
   xmlns:inkscape="http://www.inkscape.org/namespaces/inkscape"
   width="360"
   height="423"
   id="svg6156"
   version="1.1"
   inkscape:version="0.48.4 r9939"
   sodipodi:docname="webinar.svg">
  <defs
     id="defs6158" />
  <sodipodi:namedview
     id="base"
     pagecolor="#ffffff"
     bordercolor="#666666"
     borderopacity="1.0"
     inkscape:pageopacity="0.0"
     inkscape:pageshadow="2"
     inkscape:zoom="1.979899"
     inkscape:cx="216.66649"
     inkscape:cy="247.58885"
     inkscape:document-units="px"
     inkscape:current-layer="layer1"
     showgrid="false"
     inkscape:window-width="1069"
     inkscape:window-height="398"
     inkscape:window-x="0"
     inkscape:window-y="46"
     inkscape:window-maximized="0" />
  <metadata
     id="metadata6161">
    <rdf:RDF>
      <cc:Work
         rdf:about="">
        <dc:format>image/svg+xml</dc:format>
        <dc:type
           rdf:resource="http://purl.org/dc/dcmitype/StillImage" />
        <dc:title></dc:title>
      </cc:Work>
    </rdf:RDF>
  </metadata>
  <g
     inkscape:label="Layer 1"
     inkscape:groupmode="layer"
     id="layer1"
     transform="translate(0,-629.36218)">
    <g
       id="g15101"
       transform="matrix(1.0175292,0,0,-1.0175292,-876.74981,1115.6459)">
      <path
         transform="matrix(0.8,0,0,-0.8,0,595.28)"
         inkscape:connector-curvature="0"
         id="path12726"
         d="m 1152.7257,331.46187 c -4.6068,-0.60876 -8.469,-2.57471 -11.9109,-6.06286 -6.2321,-6.31583 -7.6223,-15.50391 -3.5738,-23.61903 1.1978,-2.40081 2.3164,-3.65508 11.8253,-13.2591 l 10.5024,-10.60746 -10.3158,-10.42897 c -8.3899,-8.4819 -10.5588,-10.8751 -11.6174,-12.81852 -3.3327,-6.11806 -3.552,-12.71804 -0.6303,-18.96167 0.5986,-1.27921 1.2918,-2.56697 1.5403,-2.86168 0.2486,-0.29471 0.662,-1.09269 0.9188,-1.77328 0.5523,-1.46358 2.5121,-3.65221 4.2458,-4.74142 2.2902,-1.43895 5.5052,-2.15519 9.5459,-2.12665 4.4289,0.0313 7.7749,0.74512 11.5583,2.46589 2.6474,1.20407 3.1917,1.68559 13.2712,11.74061 l 10.5106,10.48504 10.5258,-10.43634 c 11.2004,-11.10512 12.6093,-12.21536 17.2434,-13.58736 2.8709,-0.84999 8.448,-0.84908 11.3137,0.002 3.0527,0.90646 6.642,3.11529 9.0145,5.54747 6.2833,6.44118 7.5623,16.39956 3.1218,24.30547 -0.7794,1.38767 -4.2073,5.09489 -11.485,12.42086 -5.7057,5.74353 -10.374,10.5881 -10.374,10.7657 0,0.17759 4.7383,5.10383 10.5296,10.94718 11.1047,11.20447 11.764,12.03667 13.1882,16.64788 0.9441,3.05652 1.0038,7.9394 0.1339,10.95877 -2.6297,9.12833 -10.4383,15.08679 -19.7947,15.10458 -3.7317,0.007 -6.3193,-0.6462 -9.8907,-2.49708 -2.1272,-1.10248 -3.9528,-2.74594 -12.9978,-11.70115 l -10.523,-10.41853 -10.6902,10.59993 c -8.5354,8.46333 -11.1178,10.82031 -12.8116,11.69326 -3.851,1.98485 -8.214,2.76638 -12.3743,2.21661 z m 6.1872,-15.38726 c 0.6805,-0.46369 7.6793,-7.28944 15.5528,-15.16834 l 14.3153,-14.32526 15.0296,14.99641 c 13.3489,13.31946 15.2009,15.04146 16.5617,15.39925 4.5929,1.20756 8.3942,-2.5482 7.4062,-7.3173 -0.3356,-1.61972 -0.9925,-2.33611 -15.3357,-16.72367 l -14.985,-15.03146 14.3378,-14.31347 c 7.8858,-7.87241 14.7437,-14.99517 15.2398,-15.82836 2.7442,-4.60901 -0.842,-9.88141 -6.1888,-9.09894 -1.6162,0.23651 -1.9905,0.57865 -16.8611,15.41196 l -15.2081,15.17008 -14.6671,-14.67771 c -14.6475,-14.65812 -14.6701,-14.67865 -16.9141,-15.3758 -3.5108,-1.09075 -4.3774,-0.96969 -5.8405,0.81587 -2.1334,2.60345 -2.5009,4.6088 -1.31,7.14811 0.4401,0.93851 5.6107,6.34907 15.3718,16.08512 l 14.7086,14.6709 -15.0097,15.02759 c -8.2553,8.26516 -15.1761,15.47545 -15.3796,16.02286 -2.0587,5.53925 4.277,10.44993 9.1761,7.11216 z"
         style="fill:none;stroke:none" />
      <path
         transform="matrix(0.8,0,0,-0.8,0,595.28)"
         inkscape:connector-curvature="0"
         id="path12730"
         d="m 1151.1347,330.94556 c -4.1723,-1.017 -6.731,-2.49842 -10.1348,-5.86766 -3.6636,-3.62655 -5.7744,-8.66747 -5.7583,-13.75198 0.01,-3.22364 0.638,-5.9927 2.0361,-8.98031 1.1284,-2.41138 6.5395,-8.37741 17.1836,-18.94584 2.8373,-2.81707 5.1587,-5.28549 5.1587,-5.48538 0,-0.19988 -2.0042,-2.34978 -4.4537,-4.77754 -7.7156,-7.64725 -16.3444,-16.91102 -17.3499,-18.62684 -2.3234,-3.96453 -3.1596,-9.85067 -2.0612,-14.5092 0.6317,-2.67911 3.975,-9.46155 5.5459,-11.25068 2.7537,-3.13632 5.8141,-4.21146 11.9549,-4.19997 3.5078,0.007 5.0003,0.17336 7.2354,0.80859 5.3569,1.52246 6.1537,2.13152 17.6074,13.4587 l 10.5238,10.40767 9.2752,-9.18967 c 5.1013,-5.05432 10.3092,-10.0417 11.5732,-11.08306 4.4899,-3.69915 9.7001,-5.13894 15.585,-4.30671 6.8687,0.97136 13.357,6.29881 15.8782,13.03744 2.1274,5.68598 1.4262,12.68697 -1.7492,17.46503 -0.5679,0.85458 -5.5767,6.22534 -11.1307,11.93504 -5.5539,5.7097 -10.098,10.58847 -10.098,10.8417 0,0.25324 4.4477,5.01737 9.8837,10.58696 5.436,5.56959 10.5257,11.08796 11.3104,12.26304 2.036,3.0489 2.9132,6.08782 2.9435,10.19748 0.067,9.09157 -5.5251,16.70003 -14.3533,19.52855 -2.8157,0.90213 -8.4625,1.00403 -11.0429,0.19927 -5.1255,-1.59845 -6.2255,-2.48942 -20.3714,-16.49969 l -7.6645,-7.59114 -10.4816,10.29748 c -5.7648,5.66361 -11.2086,10.77904 -12.0972,11.36763 -4.1317,2.73674 -10.2176,3.82422 -14.9483,2.67109 z m 6.9567,-14.29519 c 1.0304,-0.46785 5.8913,-5.04554 16.0867,-15.14941 l 14.61,-14.47898 14.3189,14.1479 c 7.8754,7.78134 15.0263,14.60207 15.8908,15.15717 3.5152,2.25717 7.804,0.56266 8.8371,-3.49158 0.5216,-2.04715 0.02,-4.01315 -1.492,-5.849 -0.677,-0.8218 -7.3635,-7.71183 -14.8591,-15.31118 l -13.6283,-13.817 9.1997,-9.16397 c 14.4697,-14.41346 20.2186,-20.61927 20.7528,-22.40205 1.6088,-5.36995 -4.567,-10.0292 -9.0032,-6.7922 -0.7584,0.55338 -7.8224,7.37451 -15.6978,15.15807 l -14.3189,14.15192 -14.1905,-14.05903 c -7.9086,-7.83543 -14.9124,-14.48213 -15.8213,-15.01481 -1.0806,-0.63327 -2.3532,-1.02127 -3.7715,-1.14987 -2.0569,-0.18651 -2.1877,-0.14844 -3.3452,0.97352 -2.2918,2.22122 -2.9197,5.10287 -1.6822,7.71945 0.3585,0.75802 6.6275,7.35543 15.1869,15.98255 l 14.5764,14.69168 -7.0789,7.05186 c -3.8934,3.87851 -10.2794,10.39293 -14.1911,14.47647 -4.5901,4.79175 -1.9186,2.25378 7.5337,-7.15698 l 14.646,-14.58161 -15.2635,-15.29365 c -13.535,-13.56176 -15.2915,-15.44766 -15.5107,-16.65359 -0.3218,-1.77042 0.271,-3.6865 1.7047,-5.51001 1.1352,-1.44372 1.1606,-1.45434 3.027,-1.26433 1.0352,0.1054 2.4671,0.43312 3.182,0.72828 0.8791,0.36297 6.0751,5.30745 16.0548,15.27768 l 14.7551,14.74103 15.1202,-15.07185 c 16.2542,-16.20231 16.331,-16.2647 19.3183,-15.70427 3.6399,0.68285 5.7407,5.33376 3.8047,8.42341 -0.3977,0.63481 -7.2534,7.67654 -15.2348,15.64828 -7.9814,7.97174 -14.5116,14.65461 -14.5116,14.85083 0,0.19623 6.613,6.95866 14.6955,15.02764 8.0826,8.06898 14.9371,15.12613 15.2323,15.68256 1.6272,3.06701 -0.2088,7.02573 -3.7062,7.99143 -2.9332,0.8099 -2.842,0.88316 -19.156,-15.39477 -8.2673,-8.24908 -15.1839,-14.99833 -15.3703,-14.99833 -0.1863,0 -7.1047,6.74801 -15.3741,14.99557 -13.2112,13.17636 -15.2176,15.04381 -16.5379,15.3932 -5.0166,1.32753 -9.1131,-4.57763 -6.0338,-8.69776 0.7347,-0.98308 0.7247,-0.98059 -0.4037,0.10012 -1.0015,0.95922 -1.1571,1.3432 -1.1571,2.85548 0,4.7397 4.5377,7.71811 8.8061,5.78013 l 0,0 z"
         style="fill:none;stroke:none" />
      <g
         transform="matrix(0.8,0,0,-0.8,863.24814,417.4204)"
         id="g12958">
        <g
           id="g12892">
          <path
             inkscape:connector-curvature="0"
             d="m 83.199,388.629 0.136,-0.312 c 2.311,-5.006 6.526,-8.813 12.534,-11.33 l 19.052,-8.773 1.01,-0.85 c -0.726,-0.834 -1.435,-1.691 -2.121,-2.578 -8.613,-11.189 -13.345,-26.055 -13.743,-43.025 l -2.639,-1.205 -9.821,-8.293 -15.781,15.702 h -0.011 l -1.813,-10e-4 h -0.011 l -15.78,-15.701 -9.823,8.293 -20.442,9.409 c -3.025,1.245 -5.997,3.128 -7.51,6.401 0,0 -22.22,52.901 -10.167,52.901 h 76.663 c 0.15,-0.353 0.242,-0.574 0.267,-0.638 z"
             id="path12898" />
          <path
             inkscape:connector-curvature="0"
             d="m 34.043,264.328 c 0.354,32.673 18.615,52.143 36.866,52.143 15.593,0 36.51,-19.47 36.867,-52.143 0.226,-22.666 -10.57,-36.238 -36.867,-36.238 -26.298,-0.001 -37.096,13.572 -36.866,36.238 z"
             id="path12900" />
          <path
             inkscape:connector-curvature="0"
             d="m 197.729,376.986 c 6.184,2.588 10.563,6.608 12.675,11.664 0.023,0.051 0.11,0.266 0.261,0.616 h 24.042 c 0.15,-0.354 0.243,-0.573 0.27,-0.639 l 0.141,-0.312 c 2.307,-5.007 6.523,-8.813 12.526,-11.33 l 19.057,-8.773 1.011,-0.85 c -0.729,-0.834 -1.438,-1.691 -2.124,-2.578 -8.612,-11.189 -13.346,-26.055 -13.737,-43.025 l -2.638,-1.205 -9.821,-8.293 -15.787,15.702 h -0.006 l -1.818,-0.001 h -0.006 l -15.785,-15.701 -9.821,8.293 -2.642,1.207 c -0.422,16.494 -5.673,31.793 -14.87,43.205 -0.522,0.646 -1.053,1.267 -1.594,1.886 l 1.618,1.36 19.048,8.774 z"
             id="path12902" />
          <path
             inkscape:connector-curvature="0"
             d="m 222.685,316.471 c 15.592,0 36.514,-19.471 36.866,-52.144 0.229,-22.666 -10.57,-36.238 -36.866,-36.238 -26.297,0 -37.092,13.572 -36.864,36.238 0.351,32.673 18.614,52.144 36.864,52.144 z"
             id="path12904" />
          <path
             inkscape:connector-curvature="0"
             d="m 428.936,336.365 c -1.318,-3.14 -4.485,-5.156 -7.51,-6.401 l -20.443,-9.409 -9.822,-8.293 -15.778,15.702 h -0.014 l -1.812,-10e-4 h -0.012 l -15.779,-15.701 -9.822,8.293 -2.641,1.207 c -0.425,16.494 -5.676,31.793 -14.878,43.205 -0.521,0.646 -1.052,1.267 -1.592,1.885 l 1.617,1.361 19.055,8.773 c 6.185,2.588 10.563,6.608 12.675,11.664 0.021,0.051 0.114,0.266 0.261,0.616 h 76.664 c 12.05,0.002 -10.169,-52.901 -10.169,-52.901 z"
             id="path12906" />
          <path
             inkscape:connector-curvature="0"
             d="m 337.596,264.328 c 0.354,32.673 18.616,52.143 36.866,52.143 15.593,0 36.512,-19.47 36.864,-52.143 0.229,-22.666 -10.568,-36.238 -36.864,-36.238 -26.299,-0.001 -37.098,13.572 -36.866,36.238 z"
             id="path12908" />
          <path
             inkscape:connector-curvature="0"
             d="m 193.759,386.061 -20.44,-9.416 -9.823,-8.274 -15.78,15.69 h -0.013 -1.813 -0.01 l -15.781,-15.69 -9.821,8.274 -20.445,9.416 c -3.024,1.236 -5.997,3.117 -7.508,6.406 0,0 -22.221,52.904 -10.168,52.904 h 129.282 c 12.052,0 -10.167,-52.904 -10.167,-52.904 -1.319,-3.155 -4.485,-5.17 -7.513,-6.406 z"
             id="path12910" />
          <path
             inkscape:connector-curvature="0"
             d="m 146.795,284.193 c -26.297,0 -37.093,13.562 -36.865,36.229 0.356,32.663 18.618,52.15 36.865,52.15 15.594,0 36.515,-19.487 36.866,-52.15 0.233,-22.668 -10.569,-36.229 -36.866,-36.229 z"
             id="path12912" />
          <path
             inkscape:connector-curvature="0"
             d="m 345.538,386.061 -20.444,-9.416 -9.82,-8.274 -15.782,15.69 h -0.009 -1.814 -0.011 l -15.778,-15.69 -9.824,8.274 -20.439,9.416 c -3.025,1.236 -5.996,3.117 -7.514,6.406 0,0 -22.218,52.904 -10.166,52.904 h 129.28 c 12.053,0 -10.169,-52.904 -10.169,-52.904 -1.319,-3.155 -4.487,-5.17 -7.51,-6.406 z"
             id="path12914" />
          <path
             inkscape:connector-curvature="0"
             d="m 298.575,372.576 c 15.593,0 36.511,-19.488 36.866,-52.15 0.227,-22.671 -10.567,-36.229 -36.866,-36.229 -26.297,0 -37.099,13.561 -36.863,36.229 0.349,32.661 18.609,52.15 36.863,52.15 z"
             id="path12916" />
        </g>
        <g
           id="g12922" />
        <g
           id="g12924" />
        <g
           id="g12926" />
        <g
           id="g12928" />
        <g
           id="g12930" />
        <g
           id="g12932" />
        <g
           id="g12934" />
        <g
           id="g12936" />
        <g
           id="g12938" />
        <g
           id="g12940" />
        <g
           id="g12942" />
        <g
           id="g12944" />
        <g
           id="g12946" />
        <g
           id="g12948" />
        <g
           id="g12950" />
      </g>
      <path
         inkscape:connector-curvature="0"
         d="m 863.5992,301.90345 c 0,-11.84918 1.18938,-23.69837 3.55328,-35.19816 1.75432,-8.59327 10.14688,-14.12388 18.74014,-12.36954 8.58582,1.76177 14.16847,10.13201 12.36954,18.74015 -0.86974,4.25945 -1.48673,8.58581 -1.97735,12.94192 l 87.90249,0 c -0.2676,-4.60884 -0.6318,-9.18795 -1.1373,-13.69272 -0.9738,-8.70478 5.2927,-16.56954 14.0049,-17.5582 8.7197,-0.98124 16.577,5.28529 17.5583,14.00493 0.6318,5.67185 1.0852,11.44033 1.3974,17.24599 l 44.5571,0 c 0.3048,-5.80566 0.7658,-11.57414 1.3976,-17.24599 0.9738,-8.71964 8.8312,-14.98617 17.5507,-14.00493 8.7123,0.98124 15.0159,8.85342 14.0124,17.5582 -0.5055,4.50477 -0.8698,9.09131 -1.1448,13.69272 l 87.8878,0 c -0.4611,-4.14795 -1.026,-8.28105 -1.8288,-12.3398 -1.7023,-8.58584 3.8506,-16.97095 12.4438,-18.69555 8.5933,-1.7246 16.971,3.85061 18.7031,12.4513 2.2672,11.26193 3.4046,22.85838 3.4046,34.46225 0,96.32481 -78.3652,174.69 -174.69,174.69 -96.32484,0 -174.7049,-78.35775 -174.7049,-174.68257 z m 312.316,15.87821 -83.5167,0 c 0.8549,14.40635 2.8767,28.35182 5.9247,41.42755 38.7513,-8.42973 66.5604,-24.43429 77.592,-41.42755 z m -115.3252,0 -44.6017,0 c -0.8473,16.05662 -2.9511,31.59287 -6.2292,46.28914 9.1358,0.85486 18.6359,1.36035 28.5301,1.36035 9.8941,0 19.3943,-0.49806 28.5302,-1.36035 -3.2857,-14.6814 -5.3819,-30.23252 -6.2294,-46.28914 z m -82.3347,41.42755 c 3.0478,-13.07573 5.0623,-27.02864 5.9246,-41.42755 l -83.50926,0 c 11.02406,16.99326 38.83323,32.99782 77.58466,41.42755 z m 22.4495,35.76314 c -5.2481,14.09413 -11.7377,26.87252 -19.2828,37.97833 17.4467,7.58974 36.6553,11.87892 56.8598,11.87892 20.2046,0 39.4279,-4.28176 56.8597,-11.87892 -7.5526,-11.12068 -14.0347,-23.8842 -19.2828,-37.96348 -12.0945,1.39753 -24.6201,2.19293 -37.5917,2.19293 -12.9718,0 -25.4752,-0.80283 -37.5622,-2.20778 z m -46.79458,22.02579 c 5.61238,-7.92424 10.57058,-17.18652 14.77798,-27.44491 -21.68382,-5.00283 -40.96662,-12.30264 -56.91916,-21.37908 10.16918,19.32741 24.6573,35.97871 42.14118,48.82399 z m 210.89908,-48.80911 c -15.9525,9.07643 -35.2205,16.39854 -56.8968,21.40137 4.2074,10.25095 9.1581,19.49094 14.7631,27.41518 17.4765,-12.85272 31.9498,-29.4966 42.1337,-48.81655 z"
         id="path14985" />
    </g>
  </g>
</svg>
